<?xml version="1.0" encoding="UTF-8" standalone="no"?>
<!-- Created with Inkscape (http://www.inkscape.org/) -->

<svg
   xmlns:dc="http://purl.org/dc/elements/1.1/"
   xmlns:cc="http://creativecommons.org/ns#"
   xmlns:rdf="http://www.w3.org/1999/02/22-rdf-syntax-ns#"
   xmlns:svg="http://www.w3.org/2000/svg"
   xmlns="http://www.w3.org/2000/svg"
   version="1.1"
   width="42.519501"
   height="42.526875"
   viewBox="0 0 42.519501 42.526875"
   id="svg2"
   xml:space="preserve"><metadata
     id="metadata8"><rdf:RDF><cc:Work
         rdf:about=""><dc:format>image/svg+xml</dc:format><dc:type
           rdf:resource="http://purl.org/dc/dcmitype/StillImage" /><dc:title></dc:title></cc:Work></rdf:RDF></metadata><defs
     id="defs6"><clipPath
       id="clipPath16"><path
         d="m 0,34.021 34.016,0 L 34.016,0 0,0 0,34.021 z"
         id="path18" /></clipPath></defs><rect
     width="42.52"
     height="42.529999"
     x="0"
     y="-0.0031242371"
     id="rect3035"
     style="fill:#ffffff;fill-opacity:1;stroke:none" /><g
     transform="matrix(1.25,0,0,-1.25,0,42.526875)"
     id="g10"><g
       id="g12"><g
         clip-path="url(#clipPath16)"
         id="g14"><g
           transform="translate(28.0945,8.2995)"
           id="g20"><path
             d="m 0,0 -0.859,-1.404 c -0.494,-0.827 -1.56,-1.312 -2.922,-1.312 -1.39,0 -2.903,0.48 -4.252,1.354 -2.615,1.677 -5.065,3.648 -7.273,5.856 -2.208,2.208 -4.184,4.659 -5.861,7.283 -1.13,1.755 -1.596,3.826 -1.221,5.395 0.192,0.823 0.608,1.435 1.193,1.783 l 1.372,0.841 c 1.271,0.768 3.031,0.187 3.959,-1.18 0.599,-0.891 1.225,-1.774 1.879,-2.619 1.033,-1.354 1.097,-3.045 0.155,-3.845 l -0.535,-0.453 c -0.192,-0.155 -0.31,-0.388 -0.329,-0.644 -0.032,-0.298 0.064,-0.599 0.265,-0.833 0.723,-0.873 1.505,-1.719 2.318,-2.532 0.805,-0.805 1.66,-1.587 2.524,-2.318 0.443,-0.375 1.157,-0.338 1.486,0.064 l 0.516,0.622 c 0.362,0.42 0.874,0.64 1.486,0.64 0.723,0 1.564,-0.325 2.3,-0.887 0.855,-0.65 1.733,-1.285 2.61,-1.879 C 0.229,2.976 0.75,1.253 0,0 m -28.094,-8.299 34.016,0 0,34.021 -34.016,0 0,-34.021 z"
             id="path22"
             style="fill:#666666;fill-opacity:1;fill-rule:nonzero;stroke:none" /></g><g
           transform="translate(26.1835,11.1569)"
           id="g24"><path
             d="M 0,0 C -0.896,0.608 -1.797,1.253 -2.674,1.925 -3.443,2.51 -4.38,2.716 -4.682,2.359 L -5.198,1.746 c -0.421,-0.512 -1.052,-0.8 -1.737,-0.8 -0.567,0 -1.125,0.206 -1.564,0.576 -0.896,0.75 -1.778,1.559 -2.61,2.391 -0.842,0.842 -1.651,1.729 -2.405,2.625 -0.412,0.493 -0.622,1.138 -0.562,1.778 0.059,0.608 0.338,1.152 0.795,1.527 l 0.53,0.443 c 0.352,0.298 0.297,1.23 -0.347,2.076 -0.663,0.864 -1.312,1.765 -1.925,2.675 -0.393,0.58 -1.029,0.964 -1.609,0.964 -0.215,0 -0.416,-0.059 -0.59,-0.16 l -1.39,-0.855 c -0.361,-0.21 -0.525,-0.644 -0.608,-0.974 -0.292,-1.22 0.119,-2.944 1.052,-4.393 1.627,-2.546 3.543,-4.919 5.687,-7.063 2.153,-2.154 4.526,-4.06 7.063,-5.688 1.13,-0.722 2.428,-1.143 3.553,-1.143 0.887,0 1.563,0.261 1.815,0.686 l 0.859,1.408 C 1.193,-1.541 0.832,-0.553 0,0"
             id="path26"
             style="fill:#666666;fill-opacity:1;fill-rule:nonzero;stroke:none" /></g></g></g></g></svg>